dump.vcd
$date
	Wed Apr 15 09:25:44 2026
$end
$version
	Icarus Verilog
$end
$timescale
	100ps
$end
$scope module cpu_tb $end
$var wire 1 ! memwr $end
$var wire 16 " memrdata [15:0] $end
$var wire 16 # mbr [15:0] $end
$var wire 12 $ mar [11:0] $end
$var reg 1 % clk $end
$var reg 1 & rst $end
$var reg 1 ' rst1 $end
$var reg 1 ( sys_rst $end
$scope module cpu $end
$var wire 1 % clk $end
$var wire 1 & rst $end
$var wire 12 ) pc [11:0] $end
$var wire 1 ! memwr $end
$var wire 16 * memrdata [15:0] $end
$var wire 1 + ld_pc2mar $end
$var wire 1 , ld_mdata2mbr $end
$var wire 1 - ld_mbr2ac $end
$var wire 1 . ld_ir2mar $end
$var wire 1 / ld_ac2mbr $end
$var wire 16 0 ir [15:0] $end
$var wire 1 1 exrdy $end
$var wire 1 2 aczero $end
$var wire 1 3 acneg $end
$var wire 16 4 ac [15:0] $end
$var reg 12 5 mar [11:0] $end
$var reg 16 6 mbr [15:0] $end
$scope module alu $end
$var wire 1 % clk $end
$var wire 16 7 inreg [15:0] $end
$var wire 16 8 mbr [15:0] $end
$var wire 4 9 opcode [3:0] $end
$var wire 1 & rst $end
$var wire 1 - ld_mbr2ac $end
$var wire 1 1 exrdy $end
$var wire 1 2 aczero $end
$var wire 1 3 acneg $end
$var parameter 4 : ADD $end
$var parameter 4 ; INPUT $end
$var parameter 4 < LOAD $end
$var parameter 4 = STORE $end
$var parameter 4 > SUB $end
$var reg 16 ? ac [15:0] $end
$var reg 16 @ aluout [15:0] $end
$upscope $end
$scope module ctrl $end
$var wire 1 3 acneg $end
$var wire 1 2 aczero $end
$var wire 1 % clk $end
$var wire 16 A mbr [15:0] $end
$var wire 1 & rst $end
$var wire 16 B memrdata [15:0] $end
$var parameter 4 C ADD $end
$var parameter 2 D DECODE $end
$var parameter 2 E EXECUTE $end
$var parameter 2 F FETCH $end
$var parameter 4 G HALT $end
$var parameter 4 H INPUT $end
$var parameter 4 I JUMP $end
$var parameter 4 J LOAD $end
$var parameter 2 K MEMRW $end
$var parameter 4 L NOP $end
$var parameter 4 M OUTPUT $end
$var parameter 4 N SKIPC $end
$var parameter 4 O STORE $end
$var parameter 4 P SUB $end
$var reg 1 Q assert_halt $end
$var reg 1 R assert_jump $end
$var reg 1 S assert_skip $end
$var reg 2 T cpu_state [1:0] $end
$var reg 1 1 exrdy $end
$var reg 1 U inc_pc $end
$var reg 16 V ir [15:0] $end
$var reg 1 / ld_ac2mbr $end
$var reg 1 . ld_ir2mar $end
$var reg 1 - ld_mbr2ac $end
$var reg 1 W ld_mdata2ir $end
$var reg 1 , ld_mdata2mbr $end
$var reg 1 + ld_pc2mar $end
$var reg 1 ! memwr $end
$var reg 12 X pc [11:0] $end
$var reg 2 Y state_next [1:0] $end
$upscope $end
$upscope $end
$scope module mem $end
$var wire 12 Z adr [11:0] $end
$var wire 16 [ datain [15:0] $end
$var wire 16 \ dataout [15:0] $end
$var wire 1 ! write $end
$upscope $end
$upscope $end
$enddefinitions $end
$comment Show the parameter values. $end
$dumpall
b100 P
b10 O
b1000 N
b110 M
b0 L
b10 K
b1 J
b1001 I
b101 H
b111 G
b0 F
b11 E
b1 D
b11 C
b100 >
b10 =
b1 <
b101 ;
b11 :
$end
#0
$dumpvars
bx \
bx [
bx Z
bx Y
bx X
0W
bx V
0U
bx T
0S
0R
0Q
bx B
bx A
b0 @
bx ?
bx 9
bx 8
bz 7
bx 6
bx 5
bx 4
x3
x2
01
bx 0
0/
0.
0-
0,
0+
bx *
bx )
1(
x'
x&
0%
bx $
bx #
bx "
0!
$end
#50
1'
1%
#100
0%
#150
1&
1%
#200
0%
#250
03
12
b0 9
1W
1U
b1 Y
b0 4
b0 ?
b0 )
b0 X
b0 0
b0 V
b0 T
b1000000011001 "
b1000000011001 *
b1000000011001 B
b1000000011001 \
b0 $
b0 5
b0 Z
b0 #
b0 6
b0 8
b0 A
b0 [
1%
#300
0%
#350
1%
#400
0%
#450
1%
#500
0%
#550
1%
#600
0%
#650
1%
#700
0%
#750
1%
#800
0%
#850
1%
#900
0%
#950
1%
#1000
0%
#1050
1%
#1100
0%
#1150
1%
#1200
0%
#1250
1%
#1300
0%
#1350
1%
#1400
0%
#1450
1%
#1500
0%
#1550
1%
#1600
0%
#1650
1%
#1700
0%
#1750
1%
#1800
0%
#1850
1%
#1900
0%
#1950
1%
#2000
0%
#2050
1%
#2100
0%
#2150
1%
#2200
0%
#2250
1%
#2300
0%
#2350
1%
#2400
0%
#2450
1%
#2500
0%
#2550
1%
#2600
0%
#2650
1%
#2700
0%
#2750
1%
#2800
0%
#2850
1%
#2900
0%
#2950
1%
#3000
0%
#3050
1%
#3100
0%
#3150
1%
#3200
0%
#3250
1%
#3300
0%
#3350
1%
#3400
0%
#3450
1%
#3500
0%
#3550
1%
#3600
0%
#3650
1%
#3700
0%
#3750
1%
#3800
0%
#3850
1%
#3900
0%
#3950
1%
#4000
0%
#4050
1%
#4100
0%
#4150
1%
#4200
0%
#4250
1%
#4300
0%
#4350
1%
#4400
0%
#4450
1%
#4500
0%
#4550
1%
#4600
0%
#4650
1%
#4700
0%
#4750
1%
#4800
0%
#4850
1%
#4900
0%
#4950
1%
#5000
0%
#5050
1%
#5100
0%
#5150
1%
#5200
0%
#5250
1%
#5300
0%
#5350
1%
#5400
0%
#5450
1%
#5500
0%
#5550
1%
#5600
0%
#5650
1%
#5700
0%
#5750
1%
#5800
0%
#5850
1%
#5900
0%
#5950
1%
#6000
0%
#6050
1%
#6100
0%
#6150
1%
#6200
0%
#6250
1%
#6300
0%
#6350
1%
#6400
0%
#6450
1%
#6500
0%
#6550
1%
#6600
0%
#6650
1%
#6700
0%
#6750
1%
#6800
0%
#6850
1%
#6900
0%
#6950
1%
#7000
0%
#7050
1%
#7100
0%
#7150
1%
#7200
0%
#7250
1%
#7300
0%
#7350
1%
#7400
0%
#7450
1%
#7500
0%
#7550
1%
#7600
0%
#7650
1%
#7700
0%
#7750
1%
#7800
0%
#7850
1%
#7900
0%
#7950
1%
#8000
0%
#8050
1%
#8100
0%
#8150
1%
#8200
0%
#8250
1%
#8300
0%
#8350
1%
#8400
0%
#8450
1%
#8500
0%
#8550
1%
#8600
0%
#8650
1%
#8700
0%
#8750
1%
#8800
0%
#8850
1%
#8900
0%
#8950
1%
#9000
0%
#9050
1%
#9100
0%
#9150
1%
#9200
0%
#9250
1%
#9300
0%
#9350
1%
#9400
0%
#9450
1%
#9500
0%
#9550
1%
#9600
0%
#9650
1%
#9700
0%
#9750
1%
#9800
0%
#9850
1%
#9900
0%
#9950
1%
#10000
0%
0(
#10050
0'
1%
#10100
0%
#10150
0&
1%
#10200
0%
#10250
b1 9
1.
0W
0U
b10 Y
b1 )
b1 X
b1000000011001 0
b1000000011001 V
b1 T
1%
#10300
0%
#10350
1,
0.
b11 Y
b0 "
b0 *
b0 B
b0 \
b11001 $
b11001 5
b11001 Z
b10 T
1%
#10400
0%
#10450
1-
1+
0,
b0 Y
b11 T
1%
#10500
0%
#10550
1W
1U
0-
0+
b1 Y
b10000000010110 "
b10000000010110 *
b10000000010110 B
b10000000010110 \
b1 $
b1 5
b1 Z
b0 T
1%
#10600
0%
#10650
b10 9
1/
1.
0W
0U
b10 Y
b10 )
b10 X
b10000000010110 0
b10000000010110 V
b1 T
1%
#10700
0%
#10750
1!
0/
0.
b11 Y
b0 "
b0 *
b0 B
b0 \
b10110 $
b10110 5
b10110 Z
b10 T
1%
#10800
0%
#10850
1+
0!
b0 Y
b11 T
1%
#10900
0%
#10950
1W
1U
0+
b1 Y
b1000000011010 "
b1000000011010 *
b1000000011010 B
b1000000011010 \
b10 $
b10 5
b10 Z
b0 T
1%
#11000
0%
#11050
b1 9
1.
0W
0U
b10 Y
b11 )
b11 X
b1000000011010 0
b1000000011010 V
b1 T
1%
#11100
0%
#11150
1,
0.
b11 Y
b101000 "
b101000 *
b101000 B
b101000 \
b11010 $
b11010 5
b11010 Z
b10 T
1%
#11200
0%
#11250
1-
1+
0,
b0 Y
b11 T
b101000 #
b101000 6
b101000 8
b101000 A
b101000 [
1%
#11300
0%
#11350
1W
1U
0-
0+
b1 Y
02
b10000000011011 "
b10000000011011 *
b10000000011011 B
b10000000011011 \
b11 $
b11 5
b11 Z
b0 T
b101000 4
b101000 ?
1%
#11400
0%
#11450
b10 9
1/
1.
0W
0U
b10 Y
b100 )
b100 X
b10000000011011 0
b10000000011011 V
b1 T
1%
#11500
0%
#11550
1!
0/
0.
b11 Y
b101000 "
b101000 *
b101000 B
b101000 \
b11011 $
b11011 5
b11011 Z
b10 T
1%
#11600
0%
#11650
1+
0!
b0 Y
b11 T
1%
#11700
0%
#11750
1W
1U
0+
b1 Y
b1000000010110 "
b1000000010110 *
b1000000010110 B
b1000000010110 \
b100 $
b100 5
b100 Z
b0 T
1%
#11800
0%
#11850
b1 9
1.
0W
0U
b10 Y
b101 )
b101 X
b1000000010110 0
b1000000010110 V
b1 T
1%
#11900
0%
#11950
1,
0.
b11 Y
b0 "
b0 *
b0 B
b0 \
b10110 $
b10110 5
b10110 Z
b10 T
1%
#12000
0%
#12050
1-
1+
0,
b0 Y
b11 T
b0 #
b0 6
b0 8
b0 A
b0 [
1%
#12100
0%
#12150
1W
1U
0-
0+
b1 Y
12
b100000000010111 "
b100000000010111 *
b100000000010111 B
b100000000010111 \
b101 $
b101 5
b101 Z
b0 T
b0 4
b0 ?
1%
#12200
0%
#12250
b100 9
1,
1.
0W
0U
b10 Y
b110 )
b110 X
b100000000010111 0
b100000000010111 V
b1 T
1%
#12300
0%
#12350
1,
0.
b11 Y
b100000000010111 #
b100000000010111 6
b100000000010111 8
b100000000010111 A
b100000000010111 [
b101 "
b101 *
b101 B
b101 \
b10111 $
b10111 5
b10111 Z
b10 T
1%
#12400
0%
#12450
b1111111111111011 @
11
1+
0,
b0 Y
b11 T
b101 #
b101 6
b101 8
b101 A
b101 [
1%
#12500
0%
#12550
13
1W
1U
01
0+
b1 Y
b0 @
02
b0 "
b0 *
b0 B
b0 \
b110 $
b110 5
b110 Z
b0 T
b1111111111111011 4
b1111111111111011 ?
1%
#12600
0%
#12650
b0 9
0W
0U
b10 Y
b111 )
b111 X
b0 0
b0 V
b1 T
1%
#12700
0%
#12750
b11 Y
b10 T
1%
#12800
0%
#12850
1+
b0 Y
b11 T
1%
#12900
0%
#12950
1W
1U
0+
b1 Y
b1000000000000000 "
b1000000000000000 *
b1000000000000000 B
b1000000000000000 \
b111 $
b111 5
b111 Z
b0 T
1%
#13000
0%
#13050
b1000 9
1S
0W
0U
b10 Y
b1000 )
b1000 X
b1000000000000000 0
b1000000000000000 V
b1 T
1%
#13100
0%
#13150
0S
b11 Y
b10 T
b1001 )
b1001 X
1%
#13200
0%
#13250
1+
b0 Y
b11 T
1%
#13300
0%
#13350
1W
1U
0+
b1 Y
b1001000000001011 "
b1001000000001011 *
b1001000000001011 B
b1001000000001011 \
b1001 $
b1001 5
b1001 Z
b0 T
1%
#13400
0%
#13450
b1001 9
1R
0W
0U
b10 Y
b1010 )
b1010 X
b1001000000001011 0
b1001000000001011 V
b1 T
1%
#13500
0%
#13550
0R
b11 Y
b10 T
b1011 )
b1011 X
1%
#13600
0%
#13650
1+
b0 Y
b11 T
1%
#13700
0%
#13750
1W
1U
0+
b1 Y
b1000000010111 "
b1000000010111 *
b1000000010111 B
b1000000010111 \
b1011 $
b1011 5
b1011 Z
b0 T
1%
#13800
0%
#13850
b1 9
1.
0W
0U
b10 Y
b1100 )
b1100 X
b1000000010111 0
b1000000010111 V
b1 T
1%
#13900
0%
#13950
1,
0.
b11 Y
b101 "
b101 *
b101 B
b101 \
b10111 $
b10111 5
b10111 Z
b10 T
1%
#14000
0%
#14050
1-
1+
0,
b0 Y
b11 T
1%
#14100
0%
#14150
03
1W
1U
0-
0+
b1 Y
b100000000010110 "
b100000000010110 *
b100000000010110 B
b100000000010110 \
b1100 $
b1100 5
b1100 Z
b0 T
b101 4
b101 ?
1%
#14200
0%
#14250
b100 9
1,
1.
0W
0U
b10 Y
b1101 )
b1101 X
b100000000010110 0
b100000000010110 V
b1 T
1%
#14300
0%
#14350
1,
0.
b11 Y
b100000000010110 #
b100000000010110 6
b100000000010110 8
b100000000010110 A
b100000000010110 [
b0 "
b0 *
b0 B
b0 \
b10110 $
b10110 5
b10110 Z
b10 T
1%
#14400
0%
#14450
b101 @
11
1+
0,
b0 Y
b11 T
b0 #
b0 6
b0 8
b0 A
b0 [
1%
#14500
0%
#14550
b0 @
1W
1U
01
0+
b1 Y
b10000000011011 "
b10000000011011 *
b10000000011011 B
b10000000011011 \
b1101 $
b1101 5
b1101 Z
b0 T
1%
#14600
0%
#14650
b10 9
1/
1.
0W
0U
b10 Y
b1110 )
b1110 X
b10000000011011 0
b10000000011011 V
b1 T
1%
#14700
0%
#14750
1!
0/
0.
b11 Y
b101 #
b101 6
b101 8
b101 A
b101 [
b101 "
b101 *
b101 B
b101 \
b11011 $
b11011 5
b11011 Z
b10 T
1%
#14800
0%
#14850
1+
0!
b0 Y
b11 T
1%
#14900
0%
#14950
1W
1U
0+
b1 Y
b1000000011011 "
b1000000011011 *
b1000000011011 B
b1000000011011 \
b1110 $
b1110 5
b1110 Z
b0 T
1%
#15000
0%
#15050
b1 9
1.
0W
0U
b10 Y
b1111 )
b1111 X
b1000000011011 0
b1000000011011 V
b1 T
1%
#15100
0%
#15150
1,
0.
b11 Y
b101 "
b101 *
b101 B
b101 \
b11011 $
b11011 5
b11011 Z
b10 T
1%
#15200
0%
#15250
1-
1+
0,
b0 Y
b11 T
1%
#15300
0%
#15350
1W
1U
0-
0+
b1 Y
b11000000011000 "
b11000000011000 *
b11000000011000 B
b11000000011000 \
b1111 $
b1111 5
b1111 Z
b0 T
1%
#15400
0%
#15450
b11 9
1,
1.
0W
0U
b10 Y
b10000 )
b10000 X
b11000000011000 0
b11000000011000 V
b1 T
1%
#15500
0%
#15550
1,
0.
b11 Y
b11000000011000 #
b11000000011000 6
b11000000011000 8
b11000000011000 A
b11000000011000 [
b1 "
b1 *
b1 B
b1 \
b11000 $
b11000 5
b11000 Z
b10 T
1%
#15600
0%
#15650
b110 @
11
1+
0,
b0 Y
b11 T
b1 #
b1 6
b1 8
b1 A
b1 [
1%
#15700
0%
#15750
1W
1U
01
0+
b1 Y
b0 @
b10000000011011 "
b10000000011011 *
b10000000011011 B
b10000000011011 \
b10000 $
b10000 5
b10000 Z
b0 T
b110 4
b110 ?
1%
#15800
0%
#15850
b10 9
1/
1.
0W
0U
b10 Y
b10001 )
b10001 X
b10000000011011 0
b10000000011011 V
b1 T
1%
#15900
0%
#15950
1!
0/
0.
b11 Y
b110 #
b110 6
b110 8
b110 A
b110 [
b110 "
b110 *
b110 B
b110 \
b11011 $
b11011 5
b11011 Z
b10 T
1%
#16000
0%
#16050
1+
0!
b0 Y
b11 T
1%
#16100
0%
#16150
1W
1U
0+
b1 Y
b1000000010110 "
b1000000010110 *
b1000000010110 B
b1000000010110 \
b10001 $
b10001 5
b10001 Z
b0 T
1%
#16200
0%
#16250
b1 9
1.
0W
0U
b10 Y
b10010 )
b10010 X
b1000000010110 0
b1000000010110 V
b1 T
1%
#16300
0%
#16350
1,
0.
b11 Y
b0 "
b0 *
b0 B
b0 \
b10110 $
b10110 5
b10110 Z
b10 T
1%
#16400
0%
#16450
1-
1+
0,
b0 Y
b11 T
b0 #
b0 6
b0 8
b0 A
b0 [
1%
#16500
0%
#16550
1W
1U
0-
0+
b1 Y
12
b11000000011000 "
b11000000011000 *
b11000000011000 B
b11000000011000 \
b10010 $
b10010 5
b10010 Z
b0 T
b0 4
b0 ?
1%
#16600
0%
#16650
b11 9
1,
1.
0W
0U
b10 Y
b10011 )
b10011 X
b11000000011000 0
b11000000011000 V
b1 T
1%
#16700
0%
#16750
1,
0.
b11 Y
b11000000011000 #
b11000000011000 6
b11000000011000 8
b11000000011000 A
b11000000011000 [
b1 "
b1 *
b1 B
b1 \
b11000 $
b11000 5
b11000 Z
b10 T
1%
#16800
0%
#16850
b1 @
11
1+
0,
b0 Y
b11 T
b1 #
b1 6
b1 8
b1 A
b1 [
1%
#16900
0%
#16950
1W
1U
01
0+
b1 Y
b0 @
02
b10000000010110 "
b10000000010110 *
b10000000010110 B
b10000000010110 \
b10011 $
b10011 5
b10011 Z
b0 T
b1 4
b1 ?
1%
#17000
0%
#17050
b10 9
1/
1.
0W
0U
b10 Y
b10100 )
b10100 X
b10000000010110 0
b10000000010110 V
b1 T
1%
#17100
0%
#17150
1!
0/
0.
b11 Y
b1 "
b1 *
b1 B
b1 \
b10110 $
b10110 5
b10110 Z
b10 T
1%
#17200
0%
#17250
1+
0!
b0 Y
b11 T
1%
#17300
0%
#17350
1W
1U
0+
b1 Y
b1001000000000100 "
b1001000000000100 *
b1001000000000100 B
b1001000000000100 \
b10100 $
b10100 5
b10100 Z
b0 T
1%
#17400
0%
#17450
b1001 9
1R
0W
0U
b10 Y
b10101 )
b10101 X
b1001000000000100 0
b1001000000000100 V
b1 T
1%
#17500
0%
#17550
0R
b11 Y
b10 T
b100 )
b100 X
1%
#17600
0%
#17650
1+
b0 Y
b11 T
1%
#17700
0%
#17750
1W
1U
0+
b1 Y
b1000000010110 "
b1000000010110 *
b1000000010110 B
b1000000010110 \
b100 $
b100 5
b100 Z
b0 T
1%
#17800
0%
#17850
b1 9
1.
0W
0U
b10 Y
b101 )
b101 X
b1000000010110 0
b1000000010110 V
b1 T
1%
#17900
0%
#17950
1,
0.
b11 Y
b1 "
b1 *
b1 B
b1 \
b10110 $
b10110 5
b10110 Z
b10 T
1%
#18000
0%
#18050
1-
1+
0,
b0 Y
b11 T
1%
#18100
0%
#18150
1W
1U
0-
0+
b1 Y
b100000000010111 "
b100000000010111 *
b100000000010111 B
b100000000010111 \
b101 $
b101 5
b101 Z
b0 T
1%
#18200
0%
#18250
b100 9
1,
1.
0W
0U
b10 Y
b110 )
b110 X
b100000000010111 0
b100000000010111 V
b1 T
1%
#18300
0%
#18350
1,
0.
b11 Y
b100000000010111 #
b100000000010111 6
b100000000010111 8
b100000000010111 A
b100000000010111 [
b101 "
b101 *
b101 B
b101 \
b10111 $
b10111 5
b10111 Z
b10 T
1%
#18400
0%
#18450
b1111111111111100 @
11
1+
0,
b0 Y
b11 T
b101 #
b101 6
b101 8
b101 A
b101 [
1%
#18500
0%
#18550
13
1W
1U
01
0+
b1 Y
b0 @
b0 "
b0 *
b0 B
b0 \
b110 $
b110 5
b110 Z
b0 T
b1111111111111100 4
b1111111111111100 ?
1%
#18600
0%
#18650
b0 9
0W
0U
b10 Y
b111 )
b111 X
b0 0
b0 V
b1 T
1%
#18700
0%
#18750
b11 Y
b10 T
1%
#18800
0%
#18850
1+
b0 Y
b11 T
1%
#18900
0%
#18950
1W
1U
0+
b1 Y
b1000000000000000 "
b1000000000000000 *
b1000000000000000 B
b1000000000000000 \
b111 $
b111 5
b111 Z
b0 T
1%
#19000
0%
#19050
b1000 9
1S
0W
0U
b10 Y
b1000 )
b1000 X
b1000000000000000 0
b1000000000000000 V
b1 T
1%
#19100
0%
#19150
0S
b11 Y
b10 T
b1001 )
b1001 X
1%
#19200
0%
#19250
1+
b0 Y
b11 T
1%
#19300
0%
#19350
1W
1U
0+
b1 Y
b1001000000001011 "
b1001000000001011 *
b1001000000001011 B
b1001000000001011 \
b1001 $
b1001 5
b1001 Z
b0 T
1%
#19400
0%
#19450
b1001 9
1R
0W
0U
b10 Y
b1010 )
b1010 X
b1001000000001011 0
b1001000000001011 V
b1 T
1%
#19500
0%
#19550
0R
b11 Y
b10 T
b1011 )
b1011 X
1%
#19600
0%
#19650
1+
b0 Y
b11 T
1%
#19700
0%
#19750
1W
1U
0+
b1 Y
b1000000010111 "
b1000000010111 *
b1000000010111 B
b1000000010111 \
b1011 $
b1011 5
b1011 Z
b0 T
1%
#19800
0%
#19850
b1 9
1.
0W
0U
b10 Y
b1100 )
b1100 X
b1000000010111 0
b1000000010111 V
b1 T
1%
#19900
0%
#19950
1,
0.
b11 Y
b101 "
b101 *
b101 B
b101 \
b10111 $
b10111 5
b10111 Z
b10 T
1%
#20000
0%
#20050
1-
1+
0,
b0 Y
b11 T
1%
#20100
0%
#20150
03
1W
1U
0-
0+
b1 Y
b100000000010110 "
b100000000010110 *
b100000000010110 B
b100000000010110 \
b1100 $
b1100 5
b1100 Z
b0 T
b101 4
b101 ?
1%
#20200
0%
#20250
b100 9
1,
1.
0W
0U
b10 Y
b1101 )
b1101 X
b100000000010110 0
b100000000010110 V
b1 T
1%
#20300
0%
#20350
1,
0.
b11 Y
b100000000010110 #
b100000000010110 6
b100000000010110 8
b100000000010110 A
b100000000010110 [
b1 "
b1 *
b1 B
b1 \
b10110 $
b10110 5
b10110 Z
b10 T
1%
#20400
0%
#20450
b100 @
11
1+
0,
b0 Y
b11 T
b1 #
b1 6
b1 8
b1 A
b1 [
1%
#20500
0%
#20550
1W
1U
01
0+
b1 Y
b0 @
b10000000011011 "
b10000000011011 *
b10000000011011 B
b10000000011011 \
b1101 $
b1101 5
b1101 Z
b0 T
b100 4
b100 ?
1%
#20600
0%
#20650
b10 9
1/
1.
0W
0U
b10 Y
b1110 )
b1110 X
b10000000011011 0
b10000000011011 V
b1 T
1%
#20700
0%
#20750
1!
0/
0.
b11 Y
b100 #
b100 6
b100 8
b100 A
b100 [
b100 "
b100 *
b100 B
b100 \
b11011 $
b11011 5
b11011 Z
b10 T
1%
#20800
0%
#20850
1+
0!
b0 Y
b11 T
1%
#20900
0%
#20950
1W
1U
0+
b1 Y
b1000000011011 "
b1000000011011 *
b1000000011011 B
b1000000011011 \
b1110 $
b1110 5
b1110 Z
b0 T
1%
#21000
0%
#21050
b1 9
1.
0W
0U
b10 Y
b1111 )
b1111 X
b1000000011011 0
b1000000011011 V
b1 T
1%
#21100
0%
#21150
1,
0.
b11 Y
b100 "
b100 *
b100 B
b100 \
b11011 $
b11011 5
b11011 Z
b10 T
1%
#21200
0%
#21250
1-
1+
0,
b0 Y
b11 T
1%
#21300
0%
#21350
1W
1U
0-
0+
b1 Y
b11000000011000 "
b11000000011000 *
b11000000011000 B
b11000000011000 \
b1111 $
b1111 5
b1111 Z
b0 T
1%
#21400
0%
#21450
b11 9
1,
1.
0W
0U
b10 Y
b10000 )
b10000 X
b11000000011000 0
b11000000011000 V
b1 T
1%
#21500
0%
#21550
1,
0.
b11 Y
b11000000011000 #
b11000000011000 6
b11000000011000 8
b11000000011000 A
b11000000011000 [
b1 "
b1 *
b1 B
b1 \
b11000 $
b11000 5
b11000 Z
b10 T
1%
#21600
0%
#21650
b101 @
11
1+
0,
b0 Y
b11 T
b1 #
b1 6
b1 8
b1 A
b1 [
1%
#21700
0%
#21750
1W
1U
01
0+
b1 Y
b0 @
b10000000011011 "
b10000000011011 *
b10000000011011 B
b10000000011011 \
b10000 $
b10000 5
b10000 Z
b0 T
b101 4
b101 ?
1%
#21800
0%
#21850
b10 9
1/
1.
0W
0U
b10 Y
b10001 )
b10001 X
b10000000011011 0
b10000000011011 V
b1 T
1%
#21900
0%
#21950
1!
0/
0.
b11 Y
b101 #
b101 6
b101 8
b101 A
b101 [
b101 "
b101 *
b101 B
b101 \
b11011 $
b11011 5
b11011 Z
b10 T
1%
#22000
0%
#22050
1+
0!
b0 Y
b11 T
1%
#22100
0%
#22150
1W
1U
0+
b1 Y
b1000000010110 "
b1000000010110 *
b1000000010110 B
b1000000010110 \
b10001 $
b10001 5
b10001 Z
b0 T
1%
#22200
0%
#22250
b1 9
1.
0W
0U
b10 Y
b10010 )
b10010 X
b1000000010110 0
b1000000010110 V
b1 T
1%
#22300
0%
#22350
1,
0.
b11 Y
b1 "
b1 *
b1 B
b1 \
b10110 $
b10110 5
b10110 Z
b10 T
1%
#22400
0%
#22450
1-
1+
0,
b0 Y
b11 T
b1 #
b1 6
b1 8
b1 A
b1 [
1%
#22500
0%
#22550
1W
1U
0-
0+
b1 Y
b11000000011000 "
b11000000011000 *
b11000000011000 B
b11000000011000 \
b10010 $
b10010 5
b10010 Z
b0 T
b1 4
b1 ?
1%
#22600
0%
#22650
b11 9
1,
1.
0W
0U
b10 Y
b10011 )
b10011 X
b11000000011000 0
b11000000011000 V
b1 T
1%
#22700
0%
#22750
1,
0.
b11 Y
b11000000011000 #
b11000000011000 6
b11000000011000 8
b11000000011000 A
b11000000011000 [
b1 "
b1 *
b1 B
b1 \
b11000 $
b11000 5
b11000 Z
b10 T
1%
#22800
0%
#22850
b10 @
11
1+
0,
b0 Y
b11 T
b1 #
b1 6
b1 8
b1 A
b1 [
1%
#22900
0%
#22950
1W
1U
01
0+
b1 Y
b0 @
b10000000010110 "
b10000000010110 *
b10000000010110 B
b10000000010110 \
b10011 $
b10011 5
b10011 Z
b0 T
b10 4
b10 ?
1%
#23000
0%
#23050
b10 9
1/
1.
0W
0U
b10 Y
b10100 )
b10100 X
b10000000010110 0
b10000000010110 V
b1 T
1%
#23100
0%
#23150
1!
0/
0.
b11 Y
b10 #
b10 6
b10 8
b10 A
b10 [
b10 "
b10 *
b10 B
b10 \
b10110 $
b10110 5
b10110 Z
b10 T
1%
#23200
0%
#23250
1+
0!
b0 Y
b11 T
1%
#23300
0%
#23350
1W
1U
0+
b1 Y
b1001000000000100 "
b1001000000000100 *
b1001000000000100 B
b1001000000000100 \
b10100 $
b10100 5
b10100 Z
b0 T
1%
#23400
0%
#23450
b1001 9
1R
0W
0U
b10 Y
b10101 )
b10101 X
b1001000000000100 0
b1001000000000100 V
b1 T
1%
#23500
0%
#23550
0R
b11 Y
b10 T
b100 )
b100 X
1%
#23600
0%
#23650
1+
b0 Y
b11 T
1%
#23700
0%
#23750
1W
1U
0+
b1 Y
b1000000010110 "
b1000000010110 *
b1000000010110 B
b1000000010110 \
b100 $
b100 5
b100 Z
b0 T
1%
#23800
0%
#23850
b1 9
1.
0W
0U
b10 Y
b101 )
b101 X
b1000000010110 0
b1000000010110 V
b1 T
1%
#23900
0%
#23950
1,
0.
b11 Y
b10 "
b10 *
b10 B
b10 \
b10110 $
b10110 5
b10110 Z
b10 T
1%
#24000
0%
#24050
1-
1+
0,
b0 Y
b11 T
1%
#24100
0%
#24150
1W
1U
0-
0+
b1 Y
b100000000010111 "
b100000000010111 *
b100000000010111 B
b100000000010111 \
b101 $
b101 5
b101 Z
b0 T
1%
#24200
0%
#24250
b100 9
1,
1.
0W
0U
b10 Y
b110 )
b110 X
b100000000010111 0
b100000000010111 V
b1 T
1%
#24300
0%
#24350
1,
0.
b11 Y
b100000000010111 #
b100000000010111 6
b100000000010111 8
b100000000010111 A
b100000000010111 [
b101 "
b101 *
b101 B
b101 \
b10111 $
b10111 5
b10111 Z
b10 T
1%
#24400
0%
#24450
b1111111111111101 @
11
1+
0,
b0 Y
b11 T
b101 #
b101 6
b101 8
b101 A
b101 [
1%
#24500
0%
#24550
13
1W
1U
01
0+
b1 Y
b0 @
b0 "
b0 *
b0 B
b0 \
b110 $
b110 5
b110 Z
b0 T
b1111111111111101 4
b1111111111111101 ?
1%
#24600
0%
#24650
b0 9
0W
0U
b10 Y
b111 )
b111 X
b0 0
b0 V
b1 T
1%
#24700
0%
#24750
b11 Y
b10 T
1%
#24800
0%
#24850
1+
b0 Y
b11 T
1%
#24900
0%
#24950
1W
1U
0+
b1 Y
b1000000000000000 "
b1000000000000000 *
b1000000000000000 B
b1000000000000000 \
b111 $
b111 5
b111 Z
b0 T
1%
#25000
0%
#25050
b1000 9
1S
0W
0U
b10 Y
b1000 )
b1000 X
b1000000000000000 0
b1000000000000000 V
b1 T
1%
#25100
0%
#25150
0S
b11 Y
b10 T
b1001 )
b1001 X
1%
#25200
0%
#25250
1+
b0 Y
b11 T
1%
#25300
0%
#25350
1W
1U
0+
b1 Y
b1001000000001011 "
b1001000000001011 *
b1001000000001011 B
b1001000000001011 \
b1001 $
b1001 5
b1001 Z
b0 T
1%
#25400
0%
#25450
b1001 9
1R
0W
0U
b10 Y
b1010 )
b1010 X
b1001000000001011 0
b1001000000001011 V
b1 T
1%
#25500
0%
#25550
0R
b11 Y
b10 T
b1011 )
b1011 X
1%
#25600
0%
#25650
1+
b0 Y
b11 T
1%
#25700
0%
#25750
1W
1U
0+
b1 Y
b1000000010111 "
b1000000010111 *
b1000000010111 B
b1000000010111 \
b1011 $
b1011 5
b1011 Z
b0 T
1%
#25800
0%
#25850
b1 9
1.
0W
0U
b10 Y
b1100 )
b1100 X
b1000000010111 0
b1000000010111 V
b1 T
1%
#25900
0%
#25950
1,
0.
b11 Y
b101 "
b101 *
b101 B
b101 \
b10111 $
b10111 5
b10111 Z
b10 T
1%
#26000
0%
#26050
1-
1+
0,
b0 Y
b11 T
1%
#26100
0%
#26150
03
1W
1U
0-
0+
b1 Y
b100000000010110 "
b100000000010110 *
b100000000010110 B
b100000000010110 \
b1100 $
b1100 5
b1100 Z
b0 T
b101 4
b101 ?
1%
#26200
0%
#26250
b100 9
1,
1.
0W
0U
b10 Y
b1101 )
b1101 X
b100000000010110 0
b100000000010110 V
b1 T
1%
#26300
0%
#26350
1,
0.
b11 Y
b100000000010110 #
b100000000010110 6
b100000000010110 8
b100000000010110 A
b100000000010110 [
b10 "
b10 *
b10 B
b10 \
b10110 $
b10110 5
b10110 Z
b10 T
1%
#26400
0%
#26450
b11 @
11
1+
0,
b0 Y
b11 T
b10 #
b10 6
b10 8
b10 A
b10 [
1%
#26500
0%
#26550
1W
1U
01
0+
b1 Y
b0 @
b10000000011011 "
b10000000011011 *
b10000000011011 B
b10000000011011 \
b1101 $
b1101 5
b1101 Z
b0 T
b11 4
b11 ?
1%
#26600
0%
